{
  "name": "CMD_Uploader",
  "description": "",
  "main": "Main.xaml",
  "dependencies": {
    "Microsoft.Activities": "[1.0.1]",
    "Microsoft.Activities.Extensions": "[2.0.6.9]",
    "Recticel.Generic_Functions": "[1.0.41]",
    "UiPath.Excel.Activities": "[2.20.1]",
    "UiPath.Mail.Activities": "[1.19.0]",
    "UiPath.System.Activities": "[21.10.5]",
    "UiPath.UIAutomation.Activities": "[21.10.8]",
    "UiPath.WebAPI.Activities": "[1.16.2]"
  },
  "webServices": [],
  "entitiesStores": [],
  "schemaVersion": "4.0",
  "studioVersion": "19.10.3.0",
  "projectVersion": "1.0.0",
  "runtimeOptions": {
    "autoDispose": false,
    "netFrameworkLazyLoading": false,
    "isPausable": true,
    "isAttended": false,
    "requiresUserInteraction": true,
    "supportsPersistence": false,
    "excludedLoggedData": [
      "Private:*",
      "*password*"
    ],
    "executionType": "Workflow",
    "readyForPiP": false,
    "startsInPiP": false,
    "mustRestoreAllDependencies": false
  },
  "designOptions": {
    "projectProfile": "Developement",
    "outputType": "Process",
    "libraryOptions": {
      "includeOriginalXaml": false,
      "privateWorkflows": []
    },
    "processOptions": {
      "ignoredFiles": []
    },
    "fileInfoCollection": [],
    "modernBehavior": false
  },
  "expressionLanguage": "VisualBasic",
  "entryPoints": [
    {
      "filePath": "Main.xaml",
      "uniqueId": "ed9657fe-3f1a-414d-86a0-510a2f9d969b",
      "input": [],
      "output": []
    }
  ],
  "isTemplate": false,
  "templateProjectData": {},
  "publishData": {},
  "targetFramework": "Legacy"
}