{
  "name": "Framework_CreateTempBusinessPartner",
  "description": "Create temporary business partner or extend existing business partner. Check if high risk customer or low value customer. Launch credit case for high risk customer.",
  "main": "Main.xaml",
  "dependencies": {
    "UiPath.UIAutomation.Activities": "[18.3.6897.22543]",
    "UiPath.System.Activities": "[18.3.6897.22524]",
    "UiPath.Excel.Activities": "[2.4.6884.25683]",
    "UiPath.Mail.Activities": "[1.2.6863.29868]",
    "UiPath.Credentials.Activities": "[1.1.6479.13204]",
    "lib_Orch_General": "[1.0.6905.26511]",
    "lib_General": "[1.0.6905.22590]",
    "lib_BusinessLogic": "[1.0.6913.14215]",
    "lib_SAP_BP": "[1.0.6915.22896]",
    "lib_SAP_XD01": "[1.0.6918.20466]",
    "lib_Excel_General": "[1.0.6918.28646]",
    "lib_SAP_General": "[1.0.6918.31321]"
  },
  "schemaVersion": "3.2",
  "studioVersion": "18.4.0.6",
  "projectVersion": "1.0.0.0",
  "runtimeOptions": {
    "autoDispose": false,
    "excludedLoggedData": [
      "Private:*",
      "*password*"
    ]
  },
  "projectType": "Workflow",
  "libraryOptions": {
    "includeOriginalXaml": false,
    "privateWorkflows": []
  }
}