{
  "name": "CMD_CustomerMasterData_CreateCustomer_Robot",
  "description": "Create customer. Add Sales Area Data.",
  "main": "Main.xaml",
  "dependencies": {
    "lib_BusinessLogic": "[1.0.6919.19030]",
    "lib_Excel_General": "[1.0.6918.28646]",
    "lib_General": "[1.0.6905.22590]",
    "lib_Orch_General": "[1.0.6905.26511]",
    "lib_SAP_BP": "[1.0.6954.28018]",
    "lib_SAP_General": "[1.0.6954.23537]",
    "lib_SAP_XD01": "[1.0.6954.23770]",
    "Recticel.Generic_Functions": "1.0.56",
    "Recticel.SAP": "1.0.36",
    "UiPath.Excel.Activities": "[2.20.3]",
    "UiPath.Mail.Activities": "[1.20.3]",
    "UiPath.System.Activities": "[22.10.8]",
    "UiPath.UIAutomation.Activities": "[22.10.8]",
    "UiPath.WebAPI.Activities": "[1.16.2]"
  },
  "webServices": [],
  "entitiesStores": [],
  "schemaVersion": "4.0",
  "studioVersion": "19.10.3.0",
  "projectVersion": "1.0.19",
  "runtimeOptions": {
    "autoDispose": false,
    "netFrameworkLazyLoading": false,
    "isPausable": true,
    "isAttended": false,
    "requiresUserInteraction": true,
    "supportsPersistence": false,
    "workflowSerialization": "DataContract",
    "excludedLoggedData": [
      "Private:*",
      "*password*"
    ],
    "executionType": "Workflow",
    "readyForPiP": false,
    "startsInPiP": false,
    "mustRestoreAllDependencies": false,
    "pipType": "ChildSession"
  },
  "designOptions": {
    "projectProfile": "Developement",
    "outputType": "Process",
    "libraryOptions": {
      "includeOriginalXaml": false,
      "privateWorkflows": []
    },
    "processOptions": {
      "ignoredFiles": []
    },
    "fileInfoCollection": [],
    "modernBehavior": false
  },
  "expressionLanguage": "VisualBasic",
  "entryPoints": [
    {
      "filePath": "Main.xaml",
      "uniqueId": "1b6a9d68-77a9-49f2-9d14-f4bc0bc6420c",
      "input": [],
      "output": []
    }
  ],
  "isTemplate": false,
  "templateProjectData": {},
  "publishData": {},
  "targetFramework": "Legacy"
}